[
  {
    "entry": "HC",
    "label": "ruim",
    "nodes": [
      {
        "entry": "GARANTIA",
        "label": "nenhuma",
        "nodes": {
          "entry": "RISCO",
          "label": "alto"
        }
      },
      {
        "entry": "GARANTIA",
        "label": "adequada",
        "nodes": {
          "entry": "RISCO",
          "label": "moderado"
        }
      }
    ]
  },
  {
    "entry": "HC",
    "label": "desconhecido",
    "nodes": [
      {
        "entry": "GARANTIA",
        "label": "nenhuma",
        "nodes": [
          {
            "entry": "DIVIDA",
            "label": "alta",
            "nodes": {
              "entry": "RISCO",
              "label": "alto"
            }
          },
          {
            "entry": "DIVIDA",
            "label": "baixa",
            "nodes": [
              {
                "entry": "RENDA",
                "label": "$15 a $35k",
                "nodes": {
                  "entry": "RISCO",
                  "label": "moderado"
                }
              },
              {
                "entry": "RENDA",
                "label": "$0 a $15k",
                "nodes": {
                  "entry": "RISCO",
                  "label": "alto"
                }
              },
              {
                "entry": "RENDA",
                "label": "acima de $35k",
                "nodes": {
                  "entry": "RISCO",
                  "label": "baixo"
                }
              }
            ]
          }
        ]
      },
      {
        "entry": "GARANTIA",
        "label": "adequada",
        "nodes": {
          "entry": "RISCO",
          "label": "baixo"
        }
      }
    ]
  },
  {
    "entry": "HC",
    "label": "boa",
    "nodes": [
      {
        "entry": "GARANTIA",
        "label": "nenhuma",
        "nodes": [
          {
            "entry": "DIVIDA",
            "label": "baixa",
            "nodes": {
              "entry": "RISCO",
              "label": "baixo"
            }
          },
          {
            "entry": "DIVIDA",
            "label": "alta",
            "nodes": [
              {
                "entry": "RENDA",
                "label": "$0 a $15k",
                "nodes": {
                  "entry": "RISCO",
                  "label": "alto"
                }
              },
              {
                "entry": "RENDA",
                "label": "$15 a $35k",
                "nodes": {
                  "entry": "RISCO",
                  "label": "moderado"
                }
              },
              {
                "entry": "RENDA",
                "label": "acima de $35k",
                "nodes": {
                  "entry": "RISCO",
                  "label": "baixo"
                }
              }
            ]
          }
        ]
      },
      {
        "entry": "GARANTIA",
        "label": "adequada",
        "nodes": {
          "entry": "RISCO",
          "label": "baixo"
        }
      }
    ]
  }
]
